{
	"keyboard": "xd75",
	"keymap": "planck",
	"layout": "LAYOUT_ortho_5x15",
	"layers": [
		[
			"KC_NO",
			"KC_NO",
			"KC_NO",
			"KC_NO",
			"KC_NO",
			"KC_NO",
			"KC_NO",
			"KC_NO",
			"KC_NO",
			"KC_NO",
			"KC_NO",
			"KC_NO",
			"KC_NO",
			"KC_NO",
			"KC_NO",
			"KC_TAB",
			"KC_Q",
			"KC_W",
			"KC_E",
			"KC_R",
			"KC_T",
			"KC_Y",
			"KC_U",
			"KC_I",
			"KC_O",
			"KC_P",
			"KC_BSPC",
			"KC_NO",
			"KC_NO",
			"KC_NO",
			"KC_ESC",
			"KC_A",
			"KC_S",
			"KC_D",
			"KC_F",
			"KC_G",
			"KC_H",
			"KC_J",
			"KC_K",
			"KC_L",
			"KC_SCLN",
			"KC_QUOT",
			"KC_NO",
			"KC_NO",
			"KC_NO",
			"KC_LSFT",
			"KC_Z",
			"KC_X",
			"KC_C",
			"KC_V",
			"KC_B",
			"KC_N",
			"KC_M",
			"KC_COMM",
			"KC_DOT",
			"KC_SLSH",
			"KC_ENT",
			"KC_NO",
			"KC_NO",
			"KC_NO",
			"KC_LCTL",
			"KC_LGUI",
			"KC_LALT",
			"KC_RALT",
			"MO(1)",
			"KC_SPC",
			"KC_SPC",
			"MO(2)",
			"KC_LEFT",
			"KC_DOWN",
			"KC_UP",
			"KC_RGHT",
			"KC_NO",
			"KC_NO",
			"KC_NO"
		],
		[
			"KC_NO",
			"KC_NO",
			"KC_NO",
			"KC_NO",
			"KC_NO",
			"KC_NO",
			"KC_NO",
			"KC_NO",
			"KC_NO",
			"KC_NO",
			"KC_NO",
			"KC_NO",
			"KC_NO",
			"KC_NO",
			"KC_NO",
			"KC_TILD",
			"KC_EXLM",
			"KC_AT",
			"KC_HASH",
			"KC_DLR",
			"KC_PERC",
			"KC_CIRC",
			"KC_AMPR",
			"KC_ASTR",
			"KC_LPRN",
			"KC_RPRN",
			"KC_TRNS",
			"KC_NO",
			"KC_NO",
			"KC_NO",
			"KC_DEL",
			"KC_F1",
			"KC_F2",
			"KC_F3",
			"KC_F4",
			"KC_F5",
			"KC_F6",
			"KC_UNDS",
			"KC_PLUS",
			"KC_LCBR",
			"KC_RCBR",
			"KC_PIPE",
			"KC_NO",
			"KC_NO",
			"KC_NO",
			"KC_TRNS",
			"KC_F7",
			"KC_F8",
			"KC_F9",
			"KC_F10",
			"KC_F11",
			"KC_F12",
			"KC_NUBS",
			"LSFT(KC_NUBS)",
			"KC_HOME",
			"KC_END",
			"KC_TRNS",
			"KC_NO",
			"KC_NO",
			"KC_NO",
			"KC_TRNS",
			"KC_TRNS",
			"KC_TRNS",
			"KC_TRNS",
			"KC_TRNS",
			"KC_TRNS",
			"KC_TRNS",
			"KC_NO",
			"KC_MNXT",
			"KC_VOLD",
			"KC_VOLU",
			"KC_MPLY",
			"KC_NO",
			"KC_NO",
			"KC_NO"
		],
		[
			"KC_NO",
			"KC_NO",
			"KC_NO",
			"KC_NO",
			"KC_NO",
			"KC_NO",
			"KC_NO",
			"KC_NO",
			"KC_NO",
			"KC_NO",
			"KC_NO",
			"KC_NO",
			"KC_NO",
			"KC_NO",
			"KC_NO",
			"KC_GRV",
			"KC_1",
			"KC_2",
			"KC_3",
			"KC_4",
			"KC_5",
			"KC_6",
			"KC_7",
			"KC_8",
			"KC_9",
			"KC_0",
			"KC_TRNS",
			"KC_NO",
			"KC_NO",
			"KC_NO",
			"KC_DEL",
			"KC_F1",
			"KC_F2",
			"KC_F3",
			"KC_F4",
			"KC_F5",
			"KC_F6",
			"KC_MINS",
			"KC_EQL",
			"KC_LBRC",
			"KC_RBRC",
			"KC_BSLS",
			"KC_NO",
			"KC_NO",
			"KC_NO",
			"KC_TRNS",
			"KC_F7",
			"KC_F8",
			"KC_F9",
			"KC_F10",
			"KC_F11",
			"KC_F12",
			"KC_NUBS",
			"LSFT(KC_NUBS)",
			"KC_PGUP",
			"KC_PGDN",
			"KC_ENT",
			"KC_NO",
			"KC_NO",
			"KC_NO",
			"KC_TRNS",
			"KC_TRNS",
			"KC_TRNS",
			"KC_TRNS",
			"KC_NO",
			"KC_TRNS",
			"KC_TRNS",
			"KC_TRNS",
			"KC_MNXT",
			"KC_VOLD",
			"KC_VOLU",
			"KC_MPLY",
			"KC_NO",
			"KC_NO",
			"KC_NO"
		],
		[
			"KC_NO",
			"KC_NO",
			"KC_NO",
			"KC_NO",
			"KC_NO",
			"KC_NO",
			"KC_NO",
			"KC_NO",
			"KC_NO",
			"KC_NO",
			"KC_NO",
			"KC_NO",
			"KC_NO",
			"KC_NO",
			"KC_NO",
			"KC_NO",
			"KC_NO",
			"KC_NO",
			"KC_NO",
			"KC_NO",
			"KC_NO",
			"KC_NO",
			"KC_NO",
			"KC_NO",
			"KC_NO",
			"KC_NO",
			"KC_NO",
			"KC_NO",
			"KC_NO",
			"KC_NO",
			"KC_NO",
			"KC_NO",
			"KC_NO",
			"KC_NO",
			"KC_NO",
			"KC_NO",
			"KC_NO",
			"KC_NO",
			"KC_NO",
			"KC_NO",
			"KC_NO",
			"KC_NO",
			"KC_NO",
			"KC_NO",
			"KC_NO",
			"KC_NO",
			"KC_NO",
			"KC_NO",
			"KC_NO",
			"KC_NO",
			"KC_NO",
			"KC_NO",
			"KC_NO",
			"KC_NO",
			"KC_NO",
			"KC_NO",
			"KC_NO",
			"KC_NO",
			"KC_NO",
			"KC_NO",
			"KC_NO",
			"KC_NO",
			"KC_NO",
			"KC_NO",
			"KC_NO",
			"KC_NO",
			"KC_NO",
			"KC_NO",
			"KC_NO",
			"KC_NO",
			"KC_NO",
			"KC_NO",
			"KC_NO",
			"KC_NO",
			"KC_NO"
		]
	]
}